{
  "build": {
    "beforeDevCommand": "pnpm dev",
    "beforeBuildCommand": "pnpm build",
    "devPath": "http://localhost:1420",
    "distDir": "../dist"
  },
  "package": {
    "productName": "tauri-veilid",
    "version": "0.0.0"
  },
  "tauri": {
    "bundle": {
      "active": true,
      "targets": "all",
      "identifier": "com.example.tauri-veilid",
      "icon": [
        "icons/32x32.png",
        "icons/128x128.png",
        "icons/128x128@2x.png",
        "icons/icon.icns",
        "icons/icon.ico"
      ]
    },
    "security": {
      "csp": null
    },
    "windows": [
      {
        "fullscreen": false,
        "resizable": true,
        "title": "tauri-veilid",
        "width": 800,
        "height": 600
      }
    ]
  },
  "plugins": {
    "shell": {
      "open": true
    }
  }
}
